{
  "project_info": {
    "project_number": "206900851528",
    "firebase_url": "https://telemedicinedb.firebaseio.com",
    "project_id": "telemedicinedb",
    "storage_bucket": "telemedicinedb.appspot.com"
  },
  "client": [
    {
      "client_info": {
        "mobilesdk_app_id": "1:206900851528:android:acd963bcf21c966083797d",
        "android_client_info": {
          "package_name": "digital.telemedicine_flutter"
        }
      },
      "oauth_client": [
        {
          "client_id": "206900851528-het85gks2tpthp17dgq17r6u0trl9mss.apps.googleusercontent.com",
          "client_type": 1,
          "android_info": {
            "package_name": "digital.telemedicine_flutter",
            "certificate_hash": "62eea2e3c2b1b75449beabab330fbab49aac3d30"
          }
        },
        {
          "client_id": "206900851528-bkqu0b8k7nqlokq9gaqj1t58p4m11mki.apps.googleusercontent.com",
          "client_type": 3
        }
      ],
      "api_key": [
        {
          "current_key": "AIzaSyDjn6mW6hmeZnH_tGP-evU081xpbGT_dfQ"
        }
      ],
      "services": {
        "appinvite_service": {
          "other_platform_oauth_client": [
            {
              "client_id": "206900851528-bkqu0b8k7nqlokq9gaqj1t58p4m11mki.apps.googleusercontent.com",
              "client_type": 3
            }
          ]
        }
      }
    }
  ],
  "configuration_version": "1"
}